…
# `modelr`

``` r
boot_straps = sim_df_nonconstant |> 
  modelr::bootstrap(1000) |> 
  mutate(strap = map(strap, as_tibble),
         models = map(strap, \(df) lm(y ~ x, data = df)),
         results = map(models, broom::tidy)) |> 
  select(.id, results) |> 
  unnest(results)

boot_straps
```

    ## # A tibble: 2,000 × 6
    ##    .id   term        estimate std.error statistic   p.value
    ##    <chr> <chr>          <dbl>     <dbl>     <dbl>     <dbl>
    ##  1 0001  (Intercept)     2.02    0.107       18.9 6.40e- 50
    ##  2 0001  x               3.03    0.0710      42.7 2.83e-116
    ##  3 0002  (Intercept)     1.92    0.0957      20.0 8.39e- 54
    ##  4 0002  x               3.14    0.0701      44.8 7.28e-121
    ##  5 0003  (Intercept)     1.91    0.101       18.9 5.66e- 50
    ##  6 0003  x               3.12    0.0689      45.3 6.46e-122
    ##  7 0004  (Intercept)     1.94    0.0907      21.3 4.66e- 58
    ##  8 0004  x               3.08    0.0680      45.4 3.99e-122
    ##  9 0005  (Intercept)     1.95    0.110       17.7 7.92e- 46
    ## 10 0005  x               3.13    0.0767      40.9 3.88e-112
    ## # ℹ 1,990 more rows
…
